{
	"author": {
		"email": "ethan.stern@composed.io",
		"name": "Ethan Stern",
		"url": "www.composed.io"
	},
	"bugs": "https://bitbucket.org/composedsystems/variant-extensions/issues",
	"description": "Extensions to LabVIEW variant functionality for everyday use",
	"files": [
		"Source"
	],
	"keywords": [
		"variant",
		"string",
		"format"
	],
	"license": "MIT",
	"lvversion": ">=17",
	"name": "@cs/variant",
	"repository": "https://bitbucket.org/composedsystems/variant-extensions/src/master/",
	"version": "1.0.1"
}